…
Once processed, PULSE data is stored as a tibble with an average heart
rate frequency for each channel/split window. The time is relative to
the mid-point of the window. Frequencies are expressed in Hz and BPM. In
addition, the following information is also provided, which can be used
to classify or filter the data: **n**, the number of identified heart
beats, **sd**, the standard deviation of the intervals between each pair
of consecutive peaks, **ci**, the confidence interval of the Hz estimate
(hz ± ci), and **bpm_ci**, the confidence interval of the BPM estimate
(bpm ± bpm_ci).

``` r
heart_rates
#> # A tibble: 95 × 9
#>    id       time                data         n    hz    sd    ci   bpm bpm_ci
#>    <fct>    <dttm>              <list>   <int> <dbl> <dbl> <dbl> <dbl>  <dbl>
#>  1 limpet_1 2022-12-29 13:51:15 <tibble>    24 0.789 0.045 0.088  47.4   5.28
#>  2 limpet_1 2022-12-29 13:52:15 <tibble>    23 0.779 0.021 0.041  46.7   2.47
#>  3 limpet_1 2022-12-29 13:53:15 <tibble>    24 0.781 0.034 0.066  46.9   3.96
#>  4 limpet_1 2022-12-29 13:54:15 <tibble>    25 0.811 0.089 0.174  48.7  10.4 
#>  5 limpet_1 2022-12-29 13:55:15 <tibble>    25 0.817 0.016 0.032  49.0   1.92
#>  6 limpet_1 2022-12-29 13:56:15 <tibble>    24 0.81  0.18  0.353  48.6  21.2 
#>  7 limpet_1 2022-12-29 13:57:15 <tibble>    26 0.848 0.069 0.135  50.9   8.13
#>  8 limpet_1 2022-12-29 13:58:15 <tibble>    26 0.834 0.03  0.059  50.0   3.55
#>  9 limpet_1 2022-12-29 13:59:15 <tibble>    27 0.869 0.056 0.11   52.1   6.57
#> 10 limpet_1 2022-12-29 14:00:15 <tibble>    25 0.845 0.04  0.079  50.7   4.74
#> # ℹ 85 more rows
```

The raw data corresponding to each split window is still available.

``` r
heart_rates$data[[1]]
#> # A tibble: 1,200 × 3
#>    time                  val peak 
#>    <dttm>              <dbl> <lgl>
#>  1 2022-12-29 13:51:00 1093. FALSE
#>  2 2022-12-29 13:51:00 1093. FALSE
#>  3 2022-12-29 13:51:00 1094. FALSE
#>  4 2022-12-29 13:51:00 1098. FALSE
#>  5 2022-12-29 13:51:00 1104. FALSE
#>  6 2022-12-29 13:51:00 1114. FALSE
#>  7 2022-12-29 13:51:00 1128. FALSE
#>  8 2022-12-29 13:51:00 1145. FALSE
#>  9 2022-12-29 13:51:00 1163. FALSE
#> 10 2022-12-29 13:51:00 1180. FALSE
#> # ℹ 1,190 more rows
```
…
